<svg version="1.0" xmlns="http://www.w3.org/2000/svg"
     width="64.000000pt" height="64.000000pt" viewBox="0 0 64.000000 64.000000"
     preserveAspectRatio="xMidYMid meet">

    <g transform="translate(0.000000,64.000000) scale(0.100000,-0.100000)"
       fill="#000000" stroke="none">
        <path d="M249 626 c-153 -41 -246 -167 -237 -321 6 -89 34 -152 93 -209 123
-120 334 -113 449 14 58 64 80 122 80 210 1 57 -5 87 -22 125 -43 93 -130 163
-230 184 -64 13 -74 13 -133 -3z m121 -126 c22 -11 53 -20 69 -20 58 0 61 -5
61 -97 0 -151 -21 -194 -125 -253 l-50 -28 -66 39 c-87 50 -101 79 -107 218
-5 115 -3 120 58 121 19 1 51 9 70 20 44 24 43 24 90 0z"/>
        <path d="M285 449 c-22 -10 -52 -19 -67 -19 l-27 0 5 -67 c10 -118 19 -140 72
-173 26 -16 52 -30 57 -30 6 0 31 14 57 30 53 33 61 54 72 173 l7 67 -28 0
c-15 0 -46 9 -68 19 -39 17 -41 17 -80 0z"/>
    </g>
</svg>
