<svg width="34" height="34" viewBox="0 0 34 34" fill="none" xmlns="http://www.w3.org/2000/svg">
<path d="M23.426 34V20.842H27.8328L28.492 15.7269H23.426V12.4629C23.426 10.982 23.8378 9.97145 25.9609 9.97145H28.6696V5.39655C27.3583 5.25743 26.0404 5.18996 24.7218 5.19444C20.8174 5.19444 18.1447 7.57822 18.1447 11.9567V15.7269H13.7284V20.842H18.1447V34H1.88889C1.38792 34 0.907478 33.801 0.553243 33.4468C0.199007 33.0925 0 32.6121 0 32.1111V1.88889C0 1.38792 0.199007 0.907478 0.553243 0.553243C0.907478 0.199007 1.38792 0 1.88889 0H32.1111C32.6121 0 33.0925 0.199007 33.4468 0.553243C33.801 0.907478 34 1.38792 34 1.88889V32.1111C34 32.6121 33.801 33.0925 33.4468 33.4468C33.0925 33.801 32.6121 34 32.1111 34H23.426Z" fill="#000"/>
</svg>
