<svg width="25" height="19" viewBox="0 0 25 19" fill="none" xmlns="http://www.w3.org/2000/svg">
<path d="M19.7397 14.3914C18.5556 14.3914 17.5923 15.3559 17.5923 16.5419C17.5923 17.7283 18.5556 18.6935 19.7397 18.6935C20.9242 18.6935 21.8872 17.7283 21.8872 16.5419C21.8872 15.3559 20.9242 14.3914 19.7397 14.3914Z" fill="#333333"/>
<path d="M5.25989 14.3914C4.07523 14.3914 3.112 15.3559 3.112 16.5419C3.112 17.7283 4.07523 18.6935 5.25989 18.6935C6.44389 18.6935 7.40712 17.7283 7.40712 16.5419C7.40721 15.3559 6.44397 14.3914 5.25989 14.3914Z" fill="#333333"/>
<path d="M20.9511 5.35679C20.8378 5.01538 20.5183 4.78467 20.1583 4.78467H19.1432V8.35509H21.9443L20.9511 5.35679Z" fill="#333333"/>
<path d="M23.6417 9.69116H19.1432V13.1068C19.3371 13.0736 19.5363 13.0549 19.7394 13.0549C21.5343 13.0549 23.0163 14.4211 23.2029 16.1689H23.3601C23.8209 16.1689 24.1949 15.795 24.1949 15.3335V10.4764C24.1949 10.114 23.9638 9.807 23.6417 9.69116Z" fill="#333333"/>
<path d="M17.7754 0.835335C17.7754 0.373921 17.4015 0 16.9406 0H0.834765C0.373921 0 0 0.37384 0 0.835335V15.3338C0 15.7952 0.373921 16.1691 0.834765 16.1691H1.79604C1.98268 14.4213 3.4646 13.0551 5.25983 13.0551C7.0544 13.0551 8.53608 14.4213 8.72271 16.1691H15.3152H16.2765C16.3889 15.1168 16.9706 14.204 17.8077 13.6431L17.7754 0.835335Z" fill="#333333"/>
</svg>
