<svg width="35" height="35" viewBox="0 0 35 35" fill="none" xmlns="http://www.w3.org/2000/svg">
<path fill-rule="evenodd" clip-rule="evenodd" d="M29.3284 0.0219727H5.28931C2.54009 0.0219727 0.308838 2.25322 0.308838 5.00244V29.0415C0.308838 31.7907 2.54009 34.022 5.28931 34.022H29.3284C32.0776 34.022 34.3088 31.7907 34.3088 29.0415V5.00244C34.3088 2.25322 32.0776 0.0219727 29.3284 0.0219727ZM8.34399 17.0884C8.34399 22.0289 12.3683 26.0532 17.3088 26.0532C22.2494 26.0532 26.2737 22.0289 26.2737 17.0884C26.2737 12.1477 22.2494 8.12354 17.3088 8.12354C12.3683 8.12354 8.34399 12.1477 8.34399 17.0884ZM28.2659 8.12354C27.1702 8.12354 26.2737 7.22705 26.2737 6.13135C26.2737 5.03564 27.1702 4.13916 28.2659 4.13916C29.3616 4.13916 30.2581 5.03564 30.2581 6.13135C30.2581 7.22705 29.3616 8.12354 28.2659 8.12354ZM10.3362 17.0884C10.3362 13.2435 13.4639 10.1157 17.3088 10.1157C21.1538 10.1157 24.2815 13.2435 24.2815 17.0884C24.2815 20.9333 21.1538 24.061 17.3088 24.061C13.4639 24.061 10.3362 20.9333 10.3362 17.0884Z" fill="#000"/>
</svg>
